// Jest Snapshot v1, https://goo.gl/fbAQLP

exports[`Renders correctly 1`] = `
<View
  style={
    Object {
      "flex": 1,
      "paddingTop": 40,
    }
  }
>
  <View
    style={
      Object {
        "position": "absolute",
        "top": 1,
        "width": "100%",
      }
    }
  >
    <View
      style={
        Object {
          "alignItems": "center",
          "flex": 1,
          "justifyContent": "center",
        }
      }
    >
      <Text />
    </View>
  </View>
  <RCTScrollView
    style={
      Object {
        "flex": 1,
        "flexDirection": "column",
      }
    }
  >
    <View>
      <View
        style={
          Object {
            "flex": 1,
            "flexDirection": "row",
          }
        }
      >
        <View
          style={
            Object {
              "alignContent": "center",
              "alignItems": "center",
              "flexDirection": "row",
              "height": "100%",
              "width": "30%",
            }
          }
        >
          <View
            style={
              Object {
                "alignContent": "center",
                "height": 100,
                "width": 100,
              }
            }
          >
            <Text />
          </View>
        </View>
        <RCTScrollView>
          <View>
            <View
              style={
                Array [
                  Object {
                    "backgroundColor": "rgb(231, 231, 231)",
                    "borderTopLeftRadius": 4,
                    "borderTopRightRadius": 4,
                  },
                  Object {
                    "backgroundColor": "white",
                    "marginBottom": 5,
                  },
                ]
              }
            >
              <View
                style={
                  Object {
                    "backgroundColor": "tomato",
                    "bottom": 0,
                    "height": 2,
                    "left": 0,
                    "position": "absolute",
                    "right": 0,
                    "transform": Array [
                      Object {
                        "scaleY": 0.5,
                      },
                    ],
                  }
                }
              />
              <View
                style={
                  Array [
                    Object {
                      "paddingBottom": 0,
                      "paddingTop": 0,
                    },
                    Object {
                      "minHeight": 64,
                    },
                  ]
                }
              >
                <View
                  pointerEvents="none"
                  style={
                    Object {
                      "bottom": 0,
                      "left": 0,
                      "opacity": 0,
                      "position": "absolute",
                      "right": 0,
                      "top": 0,
                      "transform": Array [
                        Object {
                          "translateX": 3,
                        },
                      ],
                    }
                  }
                >
                  <Text
                    numberOfLines={1}
                    onLayout={[Function]}
                    style={
                      Object {
                        "color": "tomato",
                        "fontFamily": "System",
                        "fontSize": 16,
                        "fontWeight": undefined,
                        "left": 0,
                        "opacity": 0,
                        "paddingLeft": 12,
                        "paddingRight": 12,
                        "position": "absolute",
                        "textAlign": "left",
                        "top": 34,
                        "transform": Array [
                          Object {
                            "translateX": 0,
                          },
                          Object {
                            "translateY": -16,
                          },
                          Object {
                            "scale": 0.75,
                          },
                        ],
                        "writingDirection": "ltr",
                      }
                    }
                  >
                    SOD name
                  </Text>
                  <Text
                    numberOfLines={1}
                    style={
                      Object {
                        "color": "rgba(0, 0, 0, 0.54)",
                        "fontFamily": "System",
                        "fontSize": 16,
                        "fontWeight": undefined,
                        "left": 0,
                        "opacity": 0,
                        "paddingLeft": 12,
                        "paddingRight": 12,
                        "position": "absolute",
                        "textAlign": "left",
                        "top": 34,
                        "transform": Array [
                          Object {
                            "translateX": 0,
                          },
                          Object {
                            "translateY": -16,
                          },
                          Object {
                            "scale": 0.75,
                          },
                        ],
                        "writingDirection": "ltr",
                      }
                    }
                  >
                    SOD name
                  </Text>
                </View>
                <TextInput
                  allowFontScaling={true}
                  editable={false}
                  multiline={false}
                  onBlur={[Function]}
                  onChangeText={[Function]}
                  onFocus={[Function]}
                  placeholder=""
                  placeholderTextColor="rgba(0, 0, 0, 0.54)"
                  rejectResponderTermination={true}
                  selectionColor="tomato"
                  style={
                    Array [
                      Object {
                        "flexGrow": 1,
                        "margin": 0,
                        "zIndex": 1,
                      },
                      Object {
                        "paddingLeft": 12,
                        "paddingRight": 12,
                      },
                      Object {
                        "height": 64,
                      },
                      Object {
                        "paddingBottom": 4,
                        "paddingTop": 24,
                      },
                      Object {
                        "color": "#000000",
                        "fontFamily": "System",
                        "fontSize": 16,
                        "fontWeight": undefined,
                        "textAlign": "left",
                        "textAlignVertical": "center",
                      },
                      Array [
                        Object {},
                      ],
                    ]
                  }
                  underlineColorAndroid="transparent"
                  value="TESTNAME"
                />
              </View>
            </View>
            <View
              style={
                Array [
                  Object {
                    "backgroundColor": "rgb(231, 231, 231)",
                    "borderTopLeftRadius": 4,
                    "borderTopRightRadius": 4,
                  },
                  Object {
                    "backgroundColor": "white",
                    "marginBottom": 5,
                  },
                ]
              }
            >
              <View
                style={
                  Object {
                    "backgroundColor": "tomato",
                    "bottom": 0,
                    "height": 2,
                    "left": 0,
                    "position": "absolute",
                    "right": 0,
                    "transform": Array [
                      Object {
                        "scaleY": 0.5,
                      },
                    ],
                  }
                }
              />
              <View
                style={
                  Array [
                    Object {
                      "paddingBottom": 0,
                      "paddingTop": 0,
                    },
                    Object {
                      "minHeight": 64,
                    },
                  ]
                }
              >
                <View
                  pointerEvents="none"
                  style={
                    Object {
                      "bottom": 0,
                      "left": 0,
                      "opacity": 0,
                      "position": "absolute",
                      "right": 0,
                      "top": 0,
                      "transform": Array [
                        Object {
                          "translateX": 3,
                        },
                      ],
                    }
                  }
                >
                  <Text
                    numberOfLines={1}
                    onLayout={[Function]}
                    style={
                      Object {
                        "color": "tomato",
                        "fontFamily": "System",
                        "fontSize": 16,
                        "fontWeight": undefined,
                        "left": 0,
                        "opacity": 0,
                        "paddingLeft": 12,
                        "paddingRight": 12,
                        "position": "absolute",
                        "textAlign": "left",
                        "top": 34,
                        "transform": Array [
                          Object {
                            "translateX": 0,
                          },
                          Object {
                            "translateY": -16,
                          },
                          Object {
                            "scale": 0.75,
                          },
                        ],
                        "writingDirection": "ltr",
                      }
                    }
                  >
                    SOD description
                  </Text>
                  <Text
                    numberOfLines={1}
                    style={
                      Object {
                        "color": "rgba(0, 0, 0, 0.54)",
                        "fontFamily": "System",
                        "fontSize": 16,
                        "fontWeight": undefined,
                        "left": 0,
                        "opacity": 0,
                        "paddingLeft": 12,
                        "paddingRight": 12,
                        "position": "absolute",
                        "textAlign": "left",
                        "top": 34,
                        "transform": Array [
                          Object {
                            "translateX": 0,
                          },
                          Object {
                            "translateY": -16,
                          },
                          Object {
                            "scale": 0.75,
                          },
                        ],
                        "writingDirection": "ltr",
                      }
                    }
                  >
                    SOD description
                  </Text>
                </View>
                <TextInput
                  allowFontScaling={true}
                  editable={false}
                  multiline={true}
                  onBlur={[Function]}
                  onChangeText={[Function]}
                  onFocus={[Function]}
                  placeholder=""
                  placeholderTextColor="rgba(0, 0, 0, 0.54)"
                  rejectResponderTermination={true}
                  selectionColor="tomato"
                  style={
                    Array [
                      Object {
                        "flexGrow": 1,
                        "margin": 0,
                        "zIndex": 1,
                      },
                      Object {
                        "paddingLeft": 12,
                        "paddingRight": 12,
                      },
                      Object {},
                      Object {
                        "paddingBottom": 4,
                        "paddingTop": 36,
                      },
                      Object {
                        "color": "#000000",
                        "fontFamily": "System",
                        "fontSize": 16,
                        "fontWeight": undefined,
                        "textAlign": "left",
                        "textAlignVertical": "top",
                      },
                      Array [
                        Object {},
                      ],
                    ]
                  }
                  underlineColorAndroid="transparent"
                  value="TESTDESCRIPTION"
                />
              </View>
            </View>
            <View
              style={
                Array [
                  Object {
                    "backgroundColor": "rgb(231, 231, 231)",
                    "borderTopLeftRadius": 4,
                    "borderTopRightRadius": 4,
                  },
                  Object {
                    "backgroundColor": "white",
                    "marginBottom": 5,
                  },
                ]
              }
            >
              <View
                style={
                  Object {
                    "backgroundColor": "tomato",
                    "bottom": 0,
                    "height": 2,
                    "left": 0,
                    "position": "absolute",
                    "right": 0,
                    "transform": Array [
                      Object {
                        "scaleY": 0.5,
                      },
                    ],
                  }
                }
              />
              <View
                style={
                  Array [
                    Object {
                      "paddingBottom": 0,
                      "paddingTop": 0,
                    },
                    Object {
                      "minHeight": 64,
                    },
                  ]
                }
              >
                <View
                  pointerEvents="none"
                  style={
                    Object {
                      "bottom": 0,
                      "left": 0,
                      "opacity": 0,
                      "position": "absolute",
                      "right": 0,
                      "top": 0,
                      "transform": Array [
                        Object {
                          "translateX": 3,
                        },
                      ],
                    }
                  }
                >
                  <Text
                    numberOfLines={1}
                    onLayout={[Function]}
                    style={
                      Object {
                        "color": "tomato",
                        "fontFamily": "System",
                        "fontSize": 16,
                        "fontWeight": undefined,
                        "left": 0,
                        "opacity": 0,
                        "paddingLeft": 12,
                        "paddingRight": 12,
                        "position": "absolute",
                        "textAlign": "left",
                        "top": 34,
                        "transform": Array [
                          Object {
                            "translateX": 0,
                          },
                          Object {
                            "translateY": -16,
                          },
                          Object {
                            "scale": 0.75,
                          },
                        ],
                        "writingDirection": "ltr",
                      }
                    }
                  >
                    Owner
                  </Text>
                  <Text
                    numberOfLines={1}
                    style={
                      Object {
                        "color": "rgba(0, 0, 0, 0.54)",
                        "fontFamily": "System",
                        "fontSize": 16,
                        "fontWeight": undefined,
                        "left": 0,
                        "opacity": 0,
                        "paddingLeft": 12,
                        "paddingRight": 12,
                        "position": "absolute",
                        "textAlign": "left",
                        "top": 34,
                        "transform": Array [
                          Object {
                            "translateX": 0,
                          },
                          Object {
                            "translateY": -16,
                          },
                          Object {
                            "scale": 0.75,
                          },
                        ],
                        "writingDirection": "ltr",
                      }
                    }
                  >
                    Owner
                  </Text>
                </View>
                <TextInput
                  allowFontScaling={true}
                  editable={false}
                  multiline={false}
                  onBlur={[Function]}
                  onChangeText={[Function]}
                  onFocus={[Function]}
                  placeholder=""
                  placeholderTextColor="rgba(0, 0, 0, 0.54)"
                  rejectResponderTermination={true}
                  selectionColor="tomato"
                  style={
                    Array [
                      Object {
                        "flexGrow": 1,
                        "margin": 0,
                        "zIndex": 1,
                      },
                      Object {
                        "paddingLeft": 12,
                        "paddingRight": 12,
                      },
                      Object {
                        "height": 64,
                      },
                      Object {
                        "paddingBottom": 4,
                        "paddingTop": 24,
                      },
                      Object {
                        "color": "#000000",
                        "fontFamily": "System",
                        "fontSize": 16,
                        "fontWeight": undefined,
                        "textAlign": "left",
                        "textAlignVertical": "center",
                      },
                      Array [
                        Object {},
                      ],
                    ]
                  }
                  underlineColorAndroid="transparent"
                  value="OWNERNAMETEST"
                />
              </View>
            </View>
            <View
              style={
                Object {
                  "flexDirection": "row",
                  "justifyContent": "space-between",
                  "marginBottom": 5,
                }
              }
            >
              <Text
                style={
                  Object {
                    "color": "tomato",
                  }
                }
              >
                Risk level : 
              </Text>
              <View
                style={
                  Object {
                    "backgroundColor": "blue",
                    "borderColor": "transparent",
                    "borderRadius": 4,
                    "borderStyle": "solid",
                    "borderWidth": 0,
                    "elevation": 2,
                    "minWidth": 64,
                    "shadowColor": "#000000",
                    "shadowOffset": Object {
                      "height": 0.75,
                      "width": 0,
                    },
                    "shadowOpacity": 0.24,
                    "shadowRadius": 1.5,
                  }
                }
              >
                <View
                  accessibilityRole="button"
                  accessibilityState={
                    Object {
                      "disabled": undefined,
                    }
                  }
                  accessible={true}
                  focusable={false}
                  onClick={[Function]}
                  onResponderGrant={[Function]}
                  onResponderMove={[Function]}
                  onResponderRelease={[Function]}
                  onResponderTerminate={[Function]}
                  onResponderTerminationRequest={[Function]}
                  onStartShouldSetResponder={[Function]}
                  style={
                    Array [
                      Object {
                        "overflow": "hidden",
                      },
                      Object {
                        "borderRadius": 4,
                      },
                    ]
                  }
                >
                  <View
                    style={
                      Array [
                        Object {
                          "alignItems": "center",
                          "flexDirection": "row",
                          "justifyContent": "center",
                        },
                        undefined,
                      ]
                    }
                  >
                    <Text
                      numberOfLines={1}
                      selectable={false}
                      style={
                        Array [
                          Object {
                            "color": "#000000",
                            "fontFamily": "System",
                            "fontWeight": "400",
                          },
                          Object {
                            "textAlign": "left",
                          },
                          Array [
                            Object {
                              "letterSpacing": 1,
                              "marginHorizontal": 16,
                              "marginVertical": 9,
                              "textAlign": "center",
                            },
                            undefined,
                            Object {
                              "textTransform": "uppercase",
                            },
                            Object {
                              "color": "#ffffff",
                              "fontFamily": "System",
                              "fontWeight": "500",
                            },
                            Object {
                              "fontFamily": "System",
                              "fontWeight": "500",
                            },
                            undefined,
                          ],
                        ]
                      }
                    >
                      2
                    </Text>
                  </View>
                </View>
              </View>
            </View>
            <View
              style={
                Object {
                  "flexDirection": "row",
                  "justifyContent": "space-between",
                  "marginBottom": 5,
                }
              }
            >
              <Text
                style={
                  Object {
                    "color": "tomato",
                  }
                }
              >
                Technical level : 
              </Text>
              <View
                style={
                  Object {
                    "backgroundColor": "green",
                    "borderColor": "transparent",
                    "borderRadius": 4,
                    "borderStyle": "solid",
                    "borderWidth": 0,
                    "elevation": 2,
                    "minWidth": 64,
                    "shadowColor": "#000000",
                    "shadowOffset": Object {
                      "height": 0.75,
                      "width": 0,
                    },
                    "shadowOpacity": 0.24,
                    "shadowRadius": 1.5,
                  }
                }
              >
                <View
                  accessibilityRole="button"
                  accessibilityState={
                    Object {
                      "disabled": undefined,
                    }
                  }
                  accessible={true}
                  focusable={false}
                  onClick={[Function]}
                  onResponderGrant={[Function]}
                  onResponderMove={[Function]}
                  onResponderRelease={[Function]}
                  onResponderTerminate={[Function]}
                  onResponderTerminationRequest={[Function]}
                  onStartShouldSetResponder={[Function]}
                  style={
                    Array [
                      Object {
                        "overflow": "hidden",
                      },
                      Object {
                        "borderRadius": 4,
                      },
                    ]
                  }
                >
                  <View
                    style={
                      Array [
                        Object {
                          "alignItems": "center",
                          "flexDirection": "row",
                          "justifyContent": "center",
                        },
                        undefined,
                      ]
                    }
                  >
                    <Text
                      numberOfLines={1}
                      selectable={false}
                      style={
                        Array [
                          Object {
                            "color": "#000000",
                            "fontFamily": "System",
                            "fontWeight": "400",
                          },
                          Object {
                            "textAlign": "left",
                          },
                          Array [
                            Object {
                              "letterSpacing": 1,
                              "marginHorizontal": 16,
                              "marginVertical": 9,
                              "textAlign": "center",
                            },
                            undefined,
                            Object {
                              "textTransform": "uppercase",
                            },
                            Object {
                              "color": "#ffffff",
                              "fontFamily": "System",
                              "fontWeight": "500",
                            },
                            Object {
                              "fontFamily": "System",
                              "fontWeight": "500",
                            },
                            undefined,
                          ],
                        ]
                      }
                    >
                      1
                    </Text>
                  </View>
                </View>
              </View>
            </View>
          </View>
        </RCTScrollView>
      </View>
      <View
        style={
          Object {
            "alignItems": "center",
            "marginBottom": 10,
          }
        }
      >
        <View
          style={
            Array [
              Object {
                "borderRadius": 3,
                "overflow": "hidden",
              },
              Object {
                "borderRadius": 3,
              },
              undefined,
              false,
            ]
          }
        >
          <View
            accessibilityRole="button"
            accessibilityState={
              Object {
                "busy": false,
                "disabled": false,
              }
            }
            accessible={true}
            focusable={true}
            onClick={[Function]}
            onResponderGrant={[Function]}
            onResponderMove={[Function]}
            onResponderRelease={[Function]}
            onResponderTerminate={[Function]}
            onResponderTerminationRequest={[Function]}
            onStartShouldSetResponder={[Function]}
            style={
              Object {
                "opacity": 1,
              }
            }
          >
            <View
              style={
                Object {
                  "alignItems": "center",
                  "backgroundColor": "#2089dc",
                  "borderColor": "#2089dc",
                  "borderRadius": 3,
                  "borderWidth": 0,
                  "flexDirection": "row",
                  "justifyContent": "center",
                  "padding": 8,
                }
              }
            >
              <Text />
              <Text
                style={
                  Object {
                    "color": "white",
                    "fontSize": 18,
                    "paddingVertical": 1,
                    "textAlign": "center",
                  }
                }
              >
                Edit Sod
              </Text>
            </View>
          </View>
        </View>
      </View>
    </View>
  </RCTScrollView>
</View>
`;
