// Jest Snapshot v1, https://goo.gl/fbAQLP

exports[`Renders correctly 1`] = `
<RCTScrollView
  style={
    Object {
      "marginBottom": 50,
      "padding": 10,
    }
  }
>
  <View>
    <View
      style={Object {}}
    >
      <View
        style={
          Object {
            "alignItems": "flex-start",
            "flexDirection": "row",
            "flexWrap": "wrap",
            "justifyContent": "flex-start",
            "marginBottom": 10,
            "marginTop": 10,
            "width": "100%",
          }
        }
      >
        <Text
          style={Object {}}
        >
          <Text
            style={
              Object {
                "fontWeight": "bold",
              }
            }
          >
            <Text
              style={
                Array [
                  Object {
                    "fontWeight": "bold",
                  },
                  Object {},
                ]
              }
            >
              Privacy Policy
            </Text>
          </Text>
        </Text>
      </View>
      <View
        style={
          Object {
            "alignItems": "flex-start",
            "flexDirection": "row",
            "flexWrap": "wrap",
            "justifyContent": "flex-start",
            "marginBottom": 10,
            "marginTop": 10,
            "width": "100%",
          }
        }
      >
        <Text
          style={Object {}}
        >
          <Text
            style={
              Array [
                Object {},
                Object {},
              ]
            }
          >
            HES-SO Valais built the SanTour app as a Free app. This SERVICE is provided by HES-SO Valais at no cost and is intended for use as is.
          </Text>
        </Text>
      </View>
      <View
        style={
          Object {
            "alignItems": "flex-start",
            "flexDirection": "row",
            "flexWrap": "wrap",
            "justifyContent": "flex-start",
            "marginBottom": 10,
            "marginTop": 10,
            "width": "100%",
          }
        }
      >
        <Text
          style={Object {}}
        >
          <Text
            style={
              Array [
                Object {},
                Object {},
              ]
            }
          >
            This page is used to inform visitors regarding our policies with the collection, use, and disclosure of Personal Information if anyone decided to use our Service.
          </Text>
        </Text>
      </View>
      <View
        style={
          Object {
            "alignItems": "flex-start",
            "flexDirection": "row",
            "flexWrap": "wrap",
            "justifyContent": "flex-start",
            "marginBottom": 10,
            "marginTop": 10,
            "width": "100%",
          }
        }
      >
        <Text
          style={Object {}}
        >
          <Text
            style={
              Array [
                Object {},
                Object {},
              ]
            }
          >
            If you choose to use our Service, then you agree to the collection and use of information in relation to this policy. The Personal Information that we collect is used for providing and improving the Service. We will not use or share your information with anyone except as described in this Privacy Policy.
          </Text>
        </Text>
      </View>
      <View
        style={
          Object {
            "alignItems": "flex-start",
            "flexDirection": "row",
            "flexWrap": "wrap",
            "justifyContent": "flex-start",
            "marginBottom": 10,
            "marginTop": 10,
            "width": "100%",
          }
        }
      >
        <Text
          style={Object {}}
        >
          <Text
            style={
              Array [
                Object {},
                Object {},
              ]
            }
          >
            The terms used in this Privacy Policy have the same meanings as in our Terms and Conditions, which is accessible at SanTour unless otherwise defined in this Privacy Policy.
          </Text>
        </Text>
      </View>
      <View
        style={
          Object {
            "alignItems": "flex-start",
            "flexDirection": "row",
            "flexWrap": "wrap",
            "justifyContent": "flex-start",
            "marginBottom": 10,
            "marginTop": 10,
            "width": "100%",
          }
        }
      >
        <Text
          style={Object {}}
        >
          <Text
            style={
              Object {
                "fontWeight": "bold",
              }
            }
          >
            <Text
              style={
                Array [
                  Object {
                    "fontWeight": "bold",
                  },
                  Object {},
                ]
              }
            >
              Information Collection and Use
            </Text>
          </Text>
        </Text>
      </View>
      <View
        style={
          Object {
            "alignItems": "flex-start",
            "flexDirection": "row",
            "flexWrap": "wrap",
            "justifyContent": "flex-start",
            "marginBottom": 10,
            "marginTop": 10,
            "width": "100%",
          }
        }
      >
        <Text
          style={Object {}}
        >
          <Text
            style={
              Array [
                Object {},
                Object {},
              ]
            }
          >
            For a better experience, while using our Service, we may require you to provide us with certain personally identifiable information, including but not limited to email, firstname, lastname, user name. The information that we request will be retained by us and used as described in this privacy policy.
          </Text>
        </Text>
      </View>
      <View
        style={
          Object {
            "alignItems": "flex-start",
            "flexDirection": "row",
            "flexWrap": "wrap",
            "justifyContent": "flex-start",
            "marginBottom": 10,
            "marginTop": 10,
            "width": "100%",
          }
        }
      >
        <Text
          style={Object {}}
        >
          <Text
            style={
              Array [
                Object {},
                Object {},
              ]
            }
          >
            The app does use third party services that may collect information used to identify you.
          </Text>
        </Text>
      </View>
      <View
        style={
          Object {
            "alignItems": "flex-start",
            "flexDirection": "row",
            "flexWrap": "wrap",
            "justifyContent": "flex-start",
            "marginBottom": 10,
            "marginTop": 10,
            "width": "100%",
          }
        }
      >
        <Text
          style={Object {}}
        >
          <Text
            style={
              Array [
                Object {},
                Object {},
              ]
            }
          >
            Link to privacy policy of third party service providers used by the app
          </Text>
        </Text>
      </View>
      <View
        style={Object {}}
      >
        <View
          style={
            Object {
              "flexDirection": "row",
              "justifyContent": "flex-start",
            }
          }
        >
          <Text
            accessible={false}
            style={
              Array [
                Object {},
                Object {
                  "marginLeft": 10,
                  "marginRight": 10,
                },
              ]
            }
          >
            ·
          </Text>
          <View
            style={
              Object {
                "flex": 1,
              }
            }
          >
            <Text
              style={Object {}}
            >
              <Text
                onPress={[Function]}
                style={
                  Object {
                    "textDecorationLine": "underline",
                  }
                }
              >
                <Text
                  style={
                    Array [
                      Object {
                        "textDecorationLine": "underline",
                      },
                      Object {},
                    ]
                  }
                >
                  Google Play Services
                </Text>
              </Text>
            </Text>
          </View>
        </View>
        <View
          style={
            Object {
              "flexDirection": "row",
              "justifyContent": "flex-start",
            }
          }
        >
          <Text
            accessible={false}
            style={
              Array [
                Object {},
                Object {
                  "marginLeft": 10,
                  "marginRight": 10,
                },
              ]
            }
          >
            ·
          </Text>
          <View
            style={
              Object {
                "flex": 1,
              }
            }
          >
            <Text
              style={Object {}}
            >
              <Text
                onPress={[Function]}
                style={
                  Object {
                    "textDecorationLine": "underline",
                  }
                }
              >
                <Text
                  style={
                    Array [
                      Object {
                        "textDecorationLine": "underline",
                      },
                      Object {},
                    ]
                  }
                >
                  Google Analytics for Firebase
                </Text>
              </Text>
            </Text>
          </View>
        </View>
        <View
          style={
            Object {
              "flexDirection": "row",
              "justifyContent": "flex-start",
            }
          }
        >
          <Text
            accessible={false}
            style={
              Array [
                Object {},
                Object {
                  "marginLeft": 10,
                  "marginRight": 10,
                },
              ]
            }
          >
            ·
          </Text>
          <View
            style={
              Object {
                "flex": 1,
              }
            }
          >
            <Text
              style={Object {}}
            >
              <Text
                onPress={[Function]}
                style={
                  Object {
                    "textDecorationLine": "underline",
                  }
                }
              >
                <Text
                  style={
                    Array [
                      Object {
                        "textDecorationLine": "underline",
                      },
                      Object {},
                    ]
                  }
                >
                  Firebase Crashlytics
                </Text>
              </Text>
            </Text>
          </View>
        </View>
        <View
          style={
            Object {
              "flexDirection": "row",
              "justifyContent": "flex-start",
            }
          }
        >
          <Text
            accessible={false}
            style={
              Array [
                Object {},
                Object {
                  "marginLeft": 10,
                  "marginRight": 10,
                },
              ]
            }
          >
            ·
          </Text>
          <View
            style={
              Object {
                "flex": 1,
              }
            }
          >
            <Text
              style={Object {}}
            >
              <Text
                onPress={[Function]}
                style={
                  Object {
                    "textDecorationLine": "underline",
                  }
                }
              >
                <Text
                  style={
                    Array [
                      Object {
                        "textDecorationLine": "underline",
                      },
                      Object {},
                    ]
                  }
                >
                  Expo
                </Text>
              </Text>
            </Text>
          </View>
        </View>
      </View>
      <View
        style={
          Object {
            "alignItems": "flex-start",
            "flexDirection": "row",
            "flexWrap": "wrap",
            "justifyContent": "flex-start",
            "marginBottom": 10,
            "marginTop": 10,
            "width": "100%",
          }
        }
      >
        <Text
          style={Object {}}
        >
          <Text
            style={
              Object {
                "fontWeight": "bold",
              }
            }
          >
            <Text
              style={
                Array [
                  Object {
                    "fontWeight": "bold",
                  },
                  Object {},
                ]
              }
            >
              Log Data
            </Text>
          </Text>
        </Text>
      </View>
      <View
        style={
          Object {
            "alignItems": "flex-start",
            "flexDirection": "row",
            "flexWrap": "wrap",
            "justifyContent": "flex-start",
            "marginBottom": 10,
            "marginTop": 10,
            "width": "100%",
          }
        }
      >
        <Text
          style={Object {}}
        >
          <Text
            style={
              Array [
                Object {},
                Object {},
              ]
            }
          >
            We want to inform you that whenever you use our Service, in a case of an error in the app we collect data and information (through third party products) on your phone called Log Data. This Log Data may include information such as your device Internet Protocol (“IP”) address, device name, operating system version, the configuration of the app when utilizing our Service, the time and date of your use of the Service, and other statistics.
          </Text>
        </Text>
      </View>
      <View
        style={
          Object {
            "alignItems": "flex-start",
            "flexDirection": "row",
            "flexWrap": "wrap",
            "justifyContent": "flex-start",
            "marginBottom": 10,
            "marginTop": 10,
            "width": "100%",
          }
        }
      >
        <Text
          style={Object {}}
        >
          <Text
            style={
              Object {
                "fontWeight": "bold",
              }
            }
          >
            <Text
              style={
                Array [
                  Object {
                    "fontWeight": "bold",
                  },
                  Object {},
                ]
              }
            >
              Cookies
            </Text>
          </Text>
        </Text>
      </View>
      <View
        style={
          Object {
            "alignItems": "flex-start",
            "flexDirection": "row",
            "flexWrap": "wrap",
            "justifyContent": "flex-start",
            "marginBottom": 10,
            "marginTop": 10,
            "width": "100%",
          }
        }
      >
        <Text
          style={Object {}}
        >
          <Text
            style={
              Array [
                Object {},
                Object {},
              ]
            }
          >
            Cookies are files with a small amount of data that are commonly used as anonymous unique identifiers. These are sent to your browser from the websites that you visit and are stored on your device’s internal memory.
          </Text>
        </Text>
      </View>
      <View
        style={
          Object {
            "alignItems": "flex-start",
            "flexDirection": "row",
            "flexWrap": "wrap",
            "justifyContent": "flex-start",
            "marginBottom": 10,
            "marginTop": 10,
            "width": "100%",
          }
        }
      >
        <Text
          style={Object {}}
        >
          <Text
            style={
              Array [
                Object {},
                Object {},
              ]
            }
          >
            This Service does not use these “cookies” explicitly. However, the app may use third party code and libraries that use “cookies” to collect information and improve their services. You have the option to either accept or refuse these cookies and know when a cookie is being sent to your device. If you choose to refuse our cookies, you may not be able to use some portions of this Service.
          </Text>
        </Text>
      </View>
      <View
        style={
          Object {
            "alignItems": "flex-start",
            "flexDirection": "row",
            "flexWrap": "wrap",
            "justifyContent": "flex-start",
            "marginBottom": 10,
            "marginTop": 10,
            "width": "100%",
          }
        }
      >
        <Text
          style={Object {}}
        >
          <Text
            style={
              Object {
                "fontWeight": "bold",
              }
            }
          >
            <Text
              style={
                Array [
                  Object {
                    "fontWeight": "bold",
                  },
                  Object {},
                ]
              }
            >
              Service Providers
            </Text>
          </Text>
        </Text>
      </View>
      <View
        style={
          Object {
            "alignItems": "flex-start",
            "flexDirection": "row",
            "flexWrap": "wrap",
            "justifyContent": "flex-start",
            "marginBottom": 10,
            "marginTop": 10,
            "width": "100%",
          }
        }
      >
        <Text
          style={Object {}}
        >
          <Text
            style={
              Array [
                Object {},
                Object {},
              ]
            }
          >
            We may employ third-party companies and individuals due to the following reasons:
          </Text>
        </Text>
      </View>
      <View
        style={Object {}}
      >
        <View
          style={
            Object {
              "flexDirection": "row",
              "justifyContent": "flex-start",
            }
          }
        >
          <Text
            accessible={false}
            style={
              Array [
                Object {},
                Object {
                  "marginLeft": 10,
                  "marginRight": 10,
                },
              ]
            }
          >
            ·
          </Text>
          <View
            style={
              Object {
                "flex": 1,
              }
            }
          >
            <Text
              style={Object {}}
            >
              <Text
                style={
                  Array [
                    Object {},
                    Object {},
                  ]
                }
              >
                To facilitate our Service;
              </Text>
            </Text>
          </View>
        </View>
        <View
          style={
            Object {
              "flexDirection": "row",
              "justifyContent": "flex-start",
            }
          }
        >
          <Text
            accessible={false}
            style={
              Array [
                Object {},
                Object {
                  "marginLeft": 10,
                  "marginRight": 10,
                },
              ]
            }
          >
            ·
          </Text>
          <View
            style={
              Object {
                "flex": 1,
              }
            }
          >
            <Text
              style={Object {}}
            >
              <Text
                style={
                  Array [
                    Object {},
                    Object {},
                  ]
                }
              >
                To provide the Service on our behalf;
              </Text>
            </Text>
          </View>
        </View>
        <View
          style={
            Object {
              "flexDirection": "row",
              "justifyContent": "flex-start",
            }
          }
        >
          <Text
            accessible={false}
            style={
              Array [
                Object {},
                Object {
                  "marginLeft": 10,
                  "marginRight": 10,
                },
              ]
            }
          >
            ·
          </Text>
          <View
            style={
              Object {
                "flex": 1,
              }
            }
          >
            <Text
              style={Object {}}
            >
              <Text
                style={
                  Array [
                    Object {},
                    Object {},
                  ]
                }
              >
                To perform Service-related services; or
              </Text>
            </Text>
          </View>
        </View>
        <View
          style={
            Object {
              "flexDirection": "row",
              "justifyContent": "flex-start",
            }
          }
        >
          <Text
            accessible={false}
            style={
              Array [
                Object {},
                Object {
                  "marginLeft": 10,
                  "marginRight": 10,
                },
              ]
            }
          >
            ·
          </Text>
          <View
            style={
              Object {
                "flex": 1,
              }
            }
          >
            <Text
              style={Object {}}
            >
              <Text
                style={
                  Array [
                    Object {},
                    Object {},
                  ]
                }
              >
                To assist us in analyzing how our Service is used.
              </Text>
            </Text>
          </View>
        </View>
      </View>
      <View
        style={
          Object {
            "alignItems": "flex-start",
            "flexDirection": "row",
            "flexWrap": "wrap",
            "justifyContent": "flex-start",
            "marginBottom": 10,
            "marginTop": 10,
            "width": "100%",
          }
        }
      >
        <Text
          style={Object {}}
        >
          <Text
            style={
              Array [
                Object {},
                Object {},
              ]
            }
          >
            We want to inform users of this Service that these third parties have access to your Personal Information. The reason is to perform the tasks assigned to them on our behalf. However, they are obligated not to disclose or use the information for any other purpose.
          </Text>
        </Text>
      </View>
      <View
        style={
          Object {
            "alignItems": "flex-start",
            "flexDirection": "row",
            "flexWrap": "wrap",
            "justifyContent": "flex-start",
            "marginBottom": 10,
            "marginTop": 10,
            "width": "100%",
          }
        }
      >
        <Text
          style={Object {}}
        >
          <Text
            style={
              Object {
                "fontWeight": "bold",
              }
            }
          >
            <Text
              style={
                Array [
                  Object {
                    "fontWeight": "bold",
                  },
                  Object {},
                ]
              }
            >
              Security
            </Text>
          </Text>
        </Text>
      </View>
      <View
        style={
          Object {
            "alignItems": "flex-start",
            "flexDirection": "row",
            "flexWrap": "wrap",
            "justifyContent": "flex-start",
            "marginBottom": 10,
            "marginTop": 10,
            "width": "100%",
          }
        }
      >
        <Text
          style={Object {}}
        >
          <Text
            style={
              Array [
                Object {},
                Object {},
              ]
            }
          >
            We value your trust in providing us your Personal Information, thus we are striving to use commercially acceptable means of protecting it. But remember that no method of transmission over the internet, or method of electronic storage is 100% secure and reliable, and we cannot guarantee its absolute security.
          </Text>
        </Text>
      </View>
      <View
        style={
          Object {
            "alignItems": "flex-start",
            "flexDirection": "row",
            "flexWrap": "wrap",
            "justifyContent": "flex-start",
            "marginBottom": 10,
            "marginTop": 10,
            "width": "100%",
          }
        }
      >
        <Text
          style={Object {}}
        >
          <Text
            style={
              Object {
                "fontWeight": "bold",
              }
            }
          >
            <Text
              style={
                Array [
                  Object {
                    "fontWeight": "bold",
                  },
                  Object {},
                ]
              }
            >
              Links to Other Sites
            </Text>
          </Text>
        </Text>
      </View>
      <View
        style={
          Object {
            "alignItems": "flex-start",
            "flexDirection": "row",
            "flexWrap": "wrap",
            "justifyContent": "flex-start",
            "marginBottom": 10,
            "marginTop": 10,
            "width": "100%",
          }
        }
      >
        <Text
          style={Object {}}
        >
          <Text
            style={
              Array [
                Object {},
                Object {},
              ]
            }
          >
            This Service may contain links to other sites. If you click on a third-party link, you will be directed to that site. Note that these external sites are not operated by us. Therefore, we strongly advise you to review the Privacy Policy of these websites. We have no control over and assume no responsibility for the content, privacy policies, or practices of any third-party sites or services.
          </Text>
        </Text>
      </View>
      <View
        style={
          Object {
            "alignItems": "flex-start",
            "flexDirection": "row",
            "flexWrap": "wrap",
            "justifyContent": "flex-start",
            "marginBottom": 10,
            "marginTop": 10,
            "width": "100%",
          }
        }
      >
        <Text
          style={Object {}}
        >
          <Text
            style={
              Object {
                "fontWeight": "bold",
              }
            }
          >
            <Text
              style={
                Array [
                  Object {
                    "fontWeight": "bold",
                  },
                  Object {},
                ]
              }
            >
              Children’s Privacy
            </Text>
          </Text>
        </Text>
      </View>
      <View
        style={
          Object {
            "alignItems": "flex-start",
            "flexDirection": "row",
            "flexWrap": "wrap",
            "justifyContent": "flex-start",
            "marginBottom": 10,
            "marginTop": 10,
            "width": "100%",
          }
        }
      >
        <Text
          style={Object {}}
        >
          <Text
            style={
              Array [
                Object {},
                Object {},
              ]
            }
          >
            These Services do not address anyone under the age of 13. We do not knowingly collect personally identifiable information from children under 13 years of age. In the case we discover that a child under 13 has provided us with personal information, we immediately delete this from our servers. If you are a parent or guardian and you are aware that your child has provided us with personal information, please contact us so that we will be able to do necessary actions.
          </Text>
        </Text>
      </View>
      <View
        style={
          Object {
            "alignItems": "flex-start",
            "flexDirection": "row",
            "flexWrap": "wrap",
            "justifyContent": "flex-start",
            "marginBottom": 10,
            "marginTop": 10,
            "width": "100%",
          }
        }
      >
        <Text
          style={Object {}}
        >
          <Text
            style={
              Object {
                "fontWeight": "bold",
              }
            }
          >
            <Text
              style={
                Array [
                  Object {
                    "fontWeight": "bold",
                  },
                  Object {},
                ]
              }
            >
              Changes to This Privacy Policy
            </Text>
          </Text>
        </Text>
      </View>
      <View
        style={
          Object {
            "alignItems": "flex-start",
            "flexDirection": "row",
            "flexWrap": "wrap",
            "justifyContent": "flex-start",
            "marginBottom": 10,
            "marginTop": 10,
            "width": "100%",
          }
        }
      >
        <Text
          style={Object {}}
        >
          <Text
            style={
              Array [
                Object {},
                Object {},
              ]
            }
          >
            We may update our Privacy Policy from time to time. Thus, you are advised to review this page periodically for any changes. We will notify you of any changes by posting the new Privacy Policy on this page.
          </Text>
        </Text>
      </View>
      <View
        style={
          Object {
            "alignItems": "flex-start",
            "flexDirection": "row",
            "flexWrap": "wrap",
            "justifyContent": "flex-start",
            "marginBottom": 10,
            "marginTop": 10,
            "width": "100%",
          }
        }
      >
        <Text
          style={Object {}}
        >
          <Text
            style={
              Array [
                Object {},
                Object {},
              ]
            }
          >
            This policy is effective as of 2021-04-22
          </Text>
        </Text>
      </View>
      <View
        style={
          Object {
            "alignItems": "flex-start",
            "flexDirection": "row",
            "flexWrap": "wrap",
            "justifyContent": "flex-start",
            "marginBottom": 10,
            "marginTop": 10,
            "width": "100%",
          }
        }
      >
        <Text
          style={Object {}}
        >
          <Text
            style={
              Object {
                "fontWeight": "bold",
              }
            }
          >
            <Text
              style={
                Array [
                  Object {
                    "fontWeight": "bold",
                  },
                  Object {},
                ]
              }
            >
              Contact Us
            </Text>
          </Text>
        </Text>
      </View>
      <View
        style={
          Object {
            "alignItems": "flex-start",
            "flexDirection": "row",
            "flexWrap": "wrap",
            "justifyContent": "flex-start",
            "marginBottom": 10,
            "marginTop": 10,
            "width": "100%",
          }
        }
      >
        <Text
          style={Object {}}
        >
          <Text
            style={
              Array [
                Object {},
                Object {},
              ]
            }
          >
            If you have any questions or suggestions about our Privacy Policy, do not hesitate to contact us at alexandre.cotting@hevs.ch.
          </Text>
        </Text>
      </View>
    </View>
  </View>
</RCTScrollView>
`;
